{"failedCount":0,"prefixedPath":"classpath:tests\/API_Tests.feature","packageQualifiedName":"tests.API_Tests","loopIndex":-1,"relativePath":"tests\/API_Tests.feature","scenarioResults":[{"sectionIndex":0,"stepResults":[{"result":{"nanos":29246083,"startTime":1743094451183,"endTime":1743094451212,"millis":29.246083,"status":"passed"},"step":{"line":4,"prefix":"Given","index":0,"text":"url 'https:\/\/reqres.in\/api\/users?page=2'"}},{"result":{"nanos":247631834,"startTime":1743094451213,"endTime":1743094451461,"millis":247.631834,"status":"passed"},"step":{"line":5,"prefix":"When","index":1,"text":"method GET"},"stepLog":"19:54:11.297 request:\n1 > GET https:\/\/reqres.in\/api\/users?page=2\n1 > Host: reqres.in\n1 > Connection: Keep-Alive\n1 > User-Agent: Apache-HttpClient\/4.5.14 (Java\/11.0.25)\n1 > Accept-Encoding: gzip,deflate\n\n\n19:54:11.448 response time in milliseconds: 148\n1 < 200\n1 < Date: Thu, 27 Mar 2025 16:54:11 GMT\n1 < Content-Type: application\/json; charset=utf-8\n1 < Transfer-Encoding: chunked\n1 < Connection: keep-alive\n1 < Cf-Ray: 92706881c85fc9cf-OTP\n1 < Report-To: {\"group\":\"heroku-nel\",\"max_age\":3600,\"endpoints\":[{\"url\":\"https:\/\/nel.heroku.com\/reports?ts=1742821013&sid=c4c9725f-1ab0-44d8-820f-430df2718e11&s=vJOcw1w3XvsZJ1k9MFNo%2Fw06PBoWyF0fm3dXUkLW5MI%3D\"}]}\n1 < Reporting-Endpoints: heroku-nel=https:\/\/nel.heroku.com\/reports?ts=1742821013&sid=c4c9725f-1ab0-44d8-820f-430df2718e11&s=vJOcw1w3XvsZJ1k9MFNo%2Fw06PBoWyF0fm3dXUkLW5MI%3D\n1 < Nel: {\"report_to\":\"heroku-nel\",\"max_age\":3600,\"success_fraction\":0.005,\"failure_fraction\":0.05,\"response_headers\":[\"Via\"]}\n1 < X-Powered-By: Express\n1 < Access-Control-Allow-Origin: *\n1 < Etag: W\/\"440-ZjsmMKR8P3usr2uJZbOCGCxC3Uw\"\n1 < Via: 1.1 vegur\n1 < Cache-Control: max-age=14400\n1 < Cf-Cache-Status: HIT\n1 < Age: 2214\n1 < Vary: Accept-Encoding\n1 < Server: cloudflare\n1 < server-timing: cfL4;desc=\"?proto=TCP&rtt=19734&min_rtt=19470&rtt_var=5987&sent=5&recv=8&lost=0&retrans=0&sent_bytes=3108&recv_bytes=674&delivery_rate=202465&cwnd=243&unsent_bytes=0&cid=a5be9f43f1470331&ts=63&x=0\"\n{\"page\":2,\"per_page\":6,\"total\":12,\"total_pages\":2,\"data\":[{\"id\":7,\"email\":\"michael.lawson@reqres.in\",\"first_name\":\"Michael\",\"last_name\":\"Lawson\",\"avatar\":\"https:\/\/reqres.in\/img\/faces\/7-image.jpg\"},{\"id\":8,\"email\":\"lindsay.ferguson@reqres.in\",\"first_name\":\"Lindsay\",\"last_name\":\"Ferguson\",\"avatar\":\"https:\/\/reqres.in\/img\/faces\/8-image.jpg\"},{\"id\":9,\"email\":\"tobias.funke@reqres.in\",\"first_name\":\"Tobias\",\"last_name\":\"Funke\",\"avatar\":\"https:\/\/reqres.in\/img\/faces\/9-image.jpg\"},{\"id\":10,\"email\":\"byron.fields@reqres.in\",\"first_name\":\"Byron\",\"last_name\":\"Fields\",\"avatar\":\"https:\/\/reqres.in\/img\/faces\/10-image.jpg\"},{\"id\":11,\"email\":\"george.edwards@reqres.in\",\"first_name\":\"George\",\"last_name\":\"Edwards\",\"avatar\":\"https:\/\/reqres.in\/img\/faces\/11-image.jpg\"},{\"id\":12,\"email\":\"rachel.howell@reqres.in\",\"first_name\":\"Rachel\",\"last_name\":\"Howell\",\"avatar\":\"https:\/\/reqres.in\/img\/faces\/12-image.jpg\"}],\"support\":{\"url\":\"https:\/\/contentcaddy.io?utm_source=reqres&utm_medium=json&utm_campaign=referral\",\"text\":\"Tired of writing endless social media content? Let Content Caddy generate it for you.\"}}\n\n"},{"result":{"nanos":11208,"startTime":1743094451461,"endTime":1743094451461,"millis":0.011208,"status":"passed"},"step":{"line":6,"prefix":"Then","index":2,"text":"status 200"}},{"result":{"nanos":28204625,"startTime":1743094451461,"endTime":1743094451489,"millis":28.204625,"status":"passed"},"step":{"line":7,"prefix":"And","index":3,"text":"print response"},"stepLog":"19:54:11.487 [print] {\n  \"page\": 2,\n  \"per_page\": 6,\n  \"total\": 12,\n  \"total_pages\": 2,\n  \"data\": [\n    {\n      \"id\": 7,\n      \"email\": \"michael.lawson@reqres.in\",\n      \"first_name\": \"Michael\",\n      \"last_name\": \"Lawson\",\n      \"avatar\": \"https:\/\/reqres.in\/img\/faces\/7-image.jpg\"\n    },\n    {\n      \"id\": 8,\n      \"email\": \"lindsay.ferguson@reqres.in\",\n      \"first_name\": \"Lindsay\",\n      \"last_name\": \"Ferguson\",\n      \"avatar\": \"https:\/\/reqres.in\/img\/faces\/8-image.jpg\"\n    },\n    {\n      \"id\": 9,\n      \"email\": \"tobias.funke@reqres.in\",\n      \"first_name\": \"Tobias\",\n      \"last_name\": \"Funke\",\n      \"avatar\": \"https:\/\/reqres.in\/img\/faces\/9-image.jpg\"\n    },\n    {\n      \"id\": 10,\n      \"email\": \"byron.fields@reqres.in\",\n      \"first_name\": \"Byron\",\n      \"last_name\": \"Fields\",\n      \"avatar\": \"https:\/\/reqres.in\/img\/faces\/10-image.jpg\"\n    },\n    {\n      \"id\": 11,\n      \"email\": \"george.edwards@reqres.in\",\n      \"first_name\": \"George\",\n      \"last_name\": \"Edwards\",\n      \"avatar\": \"https:\/\/reqres.in\/img\/faces\/11-image.jpg\"\n    },\n    {\n      \"id\": 12,\n      \"email\": \"rachel.howell@reqres.in\",\n      \"first_name\": \"Rachel\",\n      \"last_name\": \"Howell\",\n      \"avatar\": \"https:\/\/reqres.in\/img\/faces\/12-image.jpg\"\n    }\n  ],\n  \"support\": {\n    \"url\": \"https:\/\/contentcaddy.io?utm_source=reqres&utm_medium=json&utm_campaign=referral\",\n    \"text\": \"Tired of writing endless social media content? Let Content Caddy generate it for you.\"\n  }\n}\n \n"}],"executorName":"main","line":3,"name":"Test a sample GET API","description":"","durationMillis":305.09375,"startTime":1743094451179,"failed":false,"refId":"[1:3]","endTime":1743094451489,"exampleIndex":-1},{"sectionIndex":1,"stepResults":[{"result":{"nanos":309042,"startTime":1743094451495,"endTime":1743094451495,"millis":0.309042,"status":"passed"},"step":{"line":10,"prefix":"Given","index":0,"text":"url 'https:\/\/reqres.in\/api\/users'"}},{"result":{"nanos":6669125,"startTime":1743094451496,"endTime":1743094451503,"millis":6.669125,"status":"passed"},"step":{"line":11,"prefix":"And","index":1,"text":"request { \"name\": \"John Doe\", \"job\": \"QA Engineer\" }"}},{"result":{"nanos":270095333,"startTime":1743094451502,"endTime":1743094451772,"millis":270.095333,"status":"passed"},"step":{"line":12,"prefix":"When","index":2,"text":"method POST"},"stepLog":"19:54:11.530 request:\n1 > POST https:\/\/reqres.in\/api\/users\n1 > Content-Type: application\/json; charset=UTF-8\n1 > Content-Length: 39\n1 > Host: reqres.in\n1 > Connection: Keep-Alive\n1 > User-Agent: Apache-HttpClient\/4.5.14 (Java\/11.0.25)\n1 > Accept-Encoding: gzip,deflate\n{\"name\":\"John Doe\",\"job\":\"QA Engineer\"}\n\n19:54:11.771 response time in milliseconds: 240\n1 < 201\n1 < Date: Thu, 27 Mar 2025 16:54:11 GMT\n1 < Content-Type: application\/json; charset=utf-8\n1 < Content-Length: 89\n1 < Connection: keep-alive\n1 < Report-To: {\"group\":\"heroku-nel\",\"max_age\":3600,\"endpoints\":[{\"url\":\"https:\/\/nel.heroku.com\/reports?ts=1743094451&sid=c4c9725f-1ab0-44d8-820f-430df2718e11&s=PD8dVYW4K%2FnxyCExHmnVwrmpq64mK3qtbm4Oirp7HfA%3D\"}]}\n1 < Reporting-Endpoints: heroku-nel=https:\/\/nel.heroku.com\/reports?ts=1743094451&sid=c4c9725f-1ab0-44d8-820f-430df2718e11&s=PD8dVYW4K%2FnxyCExHmnVwrmpq64mK3qtbm4Oirp7HfA%3D\n1 < Nel: {\"report_to\":\"heroku-nel\",\"max_age\":3600,\"success_fraction\":0.005,\"failure_fraction\":0.05,\"response_headers\":[\"Via\"]}\n1 < X-Powered-By: Express\n1 < Access-Control-Allow-Origin: *\n1 < Etag: W\/\"59-m5y1frTjLi56xYFJ0vS3IYthfII\"\n1 < Via: 1.1 vegur\n1 < cf-cache-status: DYNAMIC\n1 < Server: cloudflare\n1 < CF-RAY: 92706882cab3b67f-OTP\n1 < server-timing: cfL4;desc=\"?proto=TCP&rtt=19032&min_rtt=19030&rtt_var=7141&sent=4&recv=7&lost=0&retrans=0&sent_bytes=219&recv_bytes=1029&delivery_rate=75582&cwnd=241&unsent_bytes=0&cid=c39674a0632906a0&ts=194&x=0\"\n{\"name\":\"John Doe\",\"job\":\"QA Engineer\",\"id\":\"565\",\"createdAt\":\"2025-03-27T16:54:11.785Z\"}\n\n"},{"result":{"nanos":7083,"startTime":1743094451772,"endTime":1743094451772,"millis":0.007083,"status":"passed"},"step":{"line":13,"prefix":"Then","index":3,"text":"status 201"}},{"result":{"nanos":18087500,"startTime":1743094451773,"endTime":1743094451791,"millis":18.0875,"status":"passed"},"step":{"line":14,"prefix":"And","index":4,"text":"match response.name == \"John Doe\""}},{"result":{"nanos":1020625,"startTime":1743094451791,"endTime":1743094451792,"millis":1.020625,"status":"passed"},"step":{"line":15,"prefix":"And","index":5,"text":"match response.job == \"QA Engineer\""}},{"result":{"nanos":325875,"startTime":1743094451792,"endTime":1743094451792,"millis":0.325875,"status":"passed"},"step":{"line":16,"prefix":"And","index":6,"text":"print response"},"stepLog":"19:54:11.792 [print] {\n  \"name\": \"John Doe\",\n  \"job\": \"QA Engineer\",\n  \"id\": \"565\",\n  \"createdAt\": \"2025-03-27T16:54:11.785Z\"\n}\n \n"}],"executorName":"main","line":9,"name":"Test a sample POST API (Create User)","description":"","durationMillis":296.514583,"startTime":1743094451495,"failed":false,"refId":"[2:9]","endTime":1743094451792,"exampleIndex":-1},{"sectionIndex":2,"stepResults":[{"result":{"nanos":428125,"startTime":1743094451797,"endTime":1743094451797,"millis":0.428125,"status":"passed"},"step":{"line":19,"prefix":"Given","index":0,"text":"url 'https:\/\/reqres.in\/api\/users\/2'"}},{"result":{"nanos":195125,"startTime":1743094451798,"endTime":1743094451798,"millis":0.195125,"status":"passed"},"step":{"line":20,"prefix":"And","index":1,"text":"request { \"name\": \"John Doe\", \"job\": \"Mid QA Engineer\" }"}},{"result":{"nanos":197508292,"startTime":1743094451798,"endTime":1743094451996,"millis":197.508292,"status":"passed"},"step":{"line":21,"prefix":"When","index":2,"text":"method PUT"},"stepLog":"19:54:11.799 request:\n1 > PUT https:\/\/reqres.in\/api\/users\/2\n1 > Content-Type: application\/json; charset=UTF-8\n1 > Content-Length: 43\n1 > Host: reqres.in\n1 > Connection: Keep-Alive\n1 > User-Agent: Apache-HttpClient\/4.5.14 (Java\/11.0.25)\n1 > Accept-Encoding: gzip,deflate\n{\"name\":\"John Doe\",\"job\":\"Mid QA Engineer\"}\n\n19:54:11.994 response time in milliseconds: 195\n1 < 200\n1 < Date: Thu, 27 Mar 2025 16:54:12 GMT\n1 < Content-Type: application\/json; charset=utf-8\n1 < Transfer-Encoding: chunked\n1 < Connection: keep-alive\n1 < Report-To: {\"group\":\"heroku-nel\",\"max_age\":3600,\"endpoints\":[{\"url\":\"https:\/\/nel.heroku.com\/reports?ts=1743094452&sid=c4c9725f-1ab0-44d8-820f-430df2718e11&s=UaGOeHyfcMXv7BPaLAhweBlV8nmlesT%2FMHC8gD4e6qQ%3D\"}]}\n1 < Reporting-Endpoints: heroku-nel=https:\/\/nel.heroku.com\/reports?ts=1743094452&sid=c4c9725f-1ab0-44d8-820f-430df2718e11&s=UaGOeHyfcMXv7BPaLAhweBlV8nmlesT%2FMHC8gD4e6qQ%3D\n1 < Nel: {\"report_to\":\"heroku-nel\",\"max_age\":3600,\"success_fraction\":0.005,\"failure_fraction\":0.05,\"response_headers\":[\"Via\"]}\n1 < X-Powered-By: Express\n1 < Access-Control-Allow-Origin: *\n1 < Etag: W\/\"52-XXUslYTN\/yfJSmdvkuIvOJPxJnY\"\n1 < Via: 1.1 vegur\n1 < CF-Cache-Status: DYNAMIC\n1 < Vary: Accept-Encoding\n1 < Server: cloudflare\n1 < CF-RAY: 9270688479b4623b-OTP\n1 < server-timing: cfL4;desc=\"?proto=TCP&rtt=19189&min_rtt=18956&rtt_var=7275&sent=4&recv=7&lost=0&retrans=0&sent_bytes=219&recv_bytes=1034&delivery_rate=75965&cwnd=155&unsent_bytes=0&cid=5831d2b23723cae1&ts=151&x=0\"\n{\"name\":\"John Doe\",\"job\":\"Mid QA Engineer\",\"updatedAt\":\"2025-03-27T16:54:12.008Z\"}\n\n"},{"result":{"nanos":6541,"startTime":1743094451996,"endTime":1743094451996,"millis":0.006541,"status":"passed"},"step":{"line":22,"prefix":"Then","index":3,"text":"status 200"}},{"result":{"nanos":990334,"startTime":1743094451996,"endTime":1743094451997,"millis":0.990334,"status":"passed"},"step":{"line":23,"prefix":"And","index":4,"text":"match response.job == \"Mid QA Engineer\""}},{"result":{"nanos":430834,"startTime":1743094451997,"endTime":1743094451997,"millis":0.430834,"status":"passed"},"step":{"line":24,"prefix":"And","index":5,"text":"print response"},"stepLog":"19:54:11.997 [print] {\n  \"name\": \"John Doe\",\n  \"job\": \"Mid QA Engineer\",\n  \"updatedAt\": \"2025-03-27T16:54:12.008Z\"\n}\n \n"}],"executorName":"main","line":18,"name":"Test a sample PUT API (Update User)","description":"","durationMillis":199.559251,"startTime":1743094451797,"failed":false,"refId":"[3:18]","endTime":1743094451997,"exampleIndex":-1},{"sectionIndex":3,"stepResults":[{"result":{"nanos":146459,"startTime":1743094452003,"endTime":1743094452003,"millis":0.146459,"status":"passed"},"step":{"line":27,"prefix":"Given","index":0,"text":"url 'https:\/\/reqres.in\/api\/users\/2'"}},{"result":{"nanos":173542,"startTime":1743094452003,"endTime":1743094452003,"millis":0.173542,"status":"passed"},"step":{"line":28,"prefix":"And","index":1,"text":"request { \"job\": \"Senior QA Engineer\" }"}},{"result":{"nanos":190943000,"startTime":1743094452003,"endTime":1743094452194,"millis":190.943,"status":"passed"},"step":{"line":29,"prefix":"When","index":2,"text":"method PATCH"},"stepLog":"19:54:12.004 request:\n1 > PATCH https:\/\/reqres.in\/api\/users\/2\n1 > Content-Type: application\/json; charset=UTF-8\n1 > Content-Length: 28\n1 > Host: reqres.in\n1 > Connection: Keep-Alive\n1 > User-Agent: Apache-HttpClient\/4.5.14 (Java\/11.0.25)\n1 > Accept-Encoding: gzip,deflate\n{\"job\":\"Senior QA Engineer\"}\n\n19:54:12.193 response time in milliseconds: 188\n1 < 200\n1 < Date: Thu, 27 Mar 2025 16:54:12 GMT\n1 < Content-Type: application\/json; charset=utf-8\n1 < Transfer-Encoding: chunked\n1 < Connection: keep-alive\n1 < Report-To: {\"group\":\"heroku-nel\",\"max_age\":3600,\"endpoints\":[{\"url\":\"https:\/\/nel.heroku.com\/reports?ts=1743094452&sid=c4c9725f-1ab0-44d8-820f-430df2718e11&s=UaGOeHyfcMXv7BPaLAhweBlV8nmlesT%2FMHC8gD4e6qQ%3D\"}]}\n1 < Reporting-Endpoints: heroku-nel=https:\/\/nel.heroku.com\/reports?ts=1743094452&sid=c4c9725f-1ab0-44d8-820f-430df2718e11&s=UaGOeHyfcMXv7BPaLAhweBlV8nmlesT%2FMHC8gD4e6qQ%3D\n1 < Nel: {\"report_to\":\"heroku-nel\",\"max_age\":3600,\"success_fraction\":0.005,\"failure_fraction\":0.05,\"response_headers\":[\"Via\"]}\n1 < X-Powered-By: Express\n1 < Access-Control-Allow-Origin: *\n1 < Etag: W\/\"43-pJOoxAUuRD3xyF90AmtIxgOkKVg\"\n1 < Via: 1.1 vegur\n1 < cf-cache-status: DYNAMIC\n1 < Server: cloudflare\n1 < CF-RAY: 92706885b911c9d4-OTP\n1 < server-timing: cfL4;desc=\"?proto=TCP&rtt=18571&min_rtt=18561&rtt_var=6980&sent=4&recv=7&lost=0&retrans=0&sent_bytes=219&recv_bytes=1021&delivery_rate=77244&cwnd=233&unsent_bytes=0&cid=12b1b115ef42e995&ts=143&x=0\"\n{\"job\":\"Senior QA Engineer\",\"updatedAt\":\"2025-03-27T16:54:12.210Z\"}\n\n"},{"result":{"nanos":8750,"startTime":1743094452194,"endTime":1743094452194,"millis":0.00875,"status":"passed"},"step":{"line":30,"prefix":"Then","index":3,"text":"status 200"}},{"result":{"nanos":1181375,"startTime":1743094452194,"endTime":1743094452195,"millis":1.181375,"status":"passed"},"step":{"line":31,"prefix":"And","index":4,"text":"match response.job == \"Senior QA Engineer\""}},{"result":{"nanos":456250,"startTime":1743094452195,"endTime":1743094452195,"millis":0.45625,"status":"passed"},"step":{"line":32,"prefix":"And","index":5,"text":"print response"},"stepLog":"19:54:12.196 [print] {\n  \"job\": \"Senior QA Engineer\",\n  \"updatedAt\": \"2025-03-27T16:54:12.210Z\"\n}\n \n"}],"executorName":"main","line":26,"name":"Test a sample PATCH API (Partial Update User)","description":"","durationMillis":192.909376,"startTime":1743094452003,"failed":false,"refId":"[4:26]","endTime":1743094452196,"exampleIndex":-1},{"sectionIndex":4,"stepResults":[{"result":{"nanos":152125,"startTime":1743094452201,"endTime":1743094452201,"millis":0.152125,"status":"passed"},"step":{"line":35,"prefix":"Given","index":0,"text":"url 'https:\/\/reqres.in\/api\/users\/2'"}},{"result":{"nanos":265188542,"startTime":1743094452201,"endTime":1743094452466,"millis":265.188542,"status":"passed"},"step":{"line":36,"prefix":"When","index":1,"text":"method DELETE"},"stepLog":"19:54:12.202 request:\n1 > DELETE https:\/\/reqres.in\/api\/users\/2\n1 > Host: reqres.in\n1 > Connection: Keep-Alive\n1 > User-Agent: Apache-HttpClient\/4.5.14 (Java\/11.0.25)\n1 > Accept-Encoding: gzip,deflate\n\n\n19:54:12.465 response time in milliseconds: 261\n1 < 204\n1 < Date: Thu, 27 Mar 2025 16:54:12 GMT\n1 < Content-Length: 0\n1 < Connection: keep-alive\n1 < Report-To: {\"group\":\"heroku-nel\",\"max_age\":3600,\"endpoints\":[{\"url\":\"https:\/\/nel.heroku.com\/reports?ts=1743094452&sid=c4c9725f-1ab0-44d8-820f-430df2718e11&s=UaGOeHyfcMXv7BPaLAhweBlV8nmlesT%2FMHC8gD4e6qQ%3D\"}]}\n1 < Reporting-Endpoints: heroku-nel=https:\/\/nel.heroku.com\/reports?ts=1743094452&sid=c4c9725f-1ab0-44d8-820f-430df2718e11&s=UaGOeHyfcMXv7BPaLAhweBlV8nmlesT%2FMHC8gD4e6qQ%3D\n1 < Nel: {\"report_to\":\"heroku-nel\",\"max_age\":3600,\"success_fraction\":0.005,\"failure_fraction\":0.05,\"response_headers\":[\"Via\"]}\n1 < X-Powered-By: Express\n1 < Access-Control-Allow-Origin: *\n1 < Etag: W\/\"2-vyGp6PvFo4RvsFtPoIWeCReyIC8\"\n1 < Via: 1.1 vegur\n1 < cf-cache-status: DYNAMIC\n1 < Server: cloudflare\n1 < CF-RAY: 92706886f9e2c9e8-OTP\n1 < server-timing: cfL4;desc=\"?proto=TCP&rtt=18713&min_rtt=18391&rtt_var=7126&sent=4&recv=7&lost=0&retrans=0&sent_bytes=219&recv_bytes=927&delivery_rate=78299&cwnd=234&unsent_bytes=0&cid=aa8dc2d504bc821e&ts=216&x=0\"\n\n\n"},{"result":{"nanos":15792,"startTime":1743094452467,"endTime":1743094452467,"millis":0.015792,"status":"passed"},"step":{"line":37,"prefix":"Then","index":2,"text":"status 204"}},{"result":{"nanos":2373750,"startTime":1743094452467,"endTime":1743094452469,"millis":2.37375,"status":"passed"},"step":{"line":38,"prefix":"And","index":3,"text":"print 'User deleted successfully'"},"stepLog":"19:54:12.469 [print] User deleted successfully \n"}],"executorName":"main","line":34,"name":"Test a sample DELETE API","description":"","durationMillis":267.730209,"startTime":1743094452201,"failed":false,"refId":"[5:34]","endTime":1743094452469,"exampleIndex":-1}],"callDepth":0,"name":"Simple CRUD API tests on Reqres site","description":"","resultDate":"2025-03-27 07:54:12 ÖS","durationMillis":1261.807169,"passedCount":5}